{
  "body": "{\"title\":\"forever\",\"description\":\"young \"}",
  "pathParameters": {
    "id": "7cdceaa0-d28b-11e8-80ba-d1d17b02185f"
  },
  "requestContext": {
    "identity": {
      "cognitoIdentityId": "USER-SUB-1234"
    }
  }
}